2020-08-20 01:11:54.377  INFO 8 ---
2020-08-20 01:11:54.386  INFO 8 ---
2020-08-20 02:11:54.387  INFO 8 ---
2020-08-20 02:11:54.388  INFO 8 ---
2020-08-20 02:11:54.388  INFO 8 ---
2020-08-20 04:11:54.388  INFO 8 ---
2020-08-20 04:11:54.389  INFO 8 ---
2020-08-20 04:11:54.389  INFO 8 ---
2020-08-20 04:11:54.390  INFO 8 ---
2020-08-20 04:11:54.390  INFO 8 ---
2020-08-20 04:11:54.391  INFO 8 ---
2020-08-20 04:11:54.391  INFO 8 ---
2020-08-20 04:11:54.391  INFO 8 ---
2020-08-20 04:11:54.392  INFO 8 ---
2020-08-20 05:11:54.392  INFO 8 ---
2020-08-20 05:11:54.392  INFO 8 ---
2020-08-20 06:11:54.394  INFO 8 ---
2020-08-20 06:11:54.394  INFO 8 ---
2020-08-20 07:11:54.395  INFO 8 ---
2020-08-20 07:11:54.406  INFO 8 ---
2020-08-20 08:11:54.406  INFO 8 ---
2020-08-20 09:11:54.406  INFO 8 ---
2020-08-20 10:11:54.377  INFO 8 ---
2020-08-20 10:11:54.386  INFO 8 ---
2020-08-20 11:11:54.387  INFO 8 ---
2020-08-20 11:11:54.388  INFO 8 ---
2020-08-20 11:11:54.388  INFO 8 ---
2020-08-20 12:11:54.388  INFO 8 ---
2020-08-20 12:11:54.389  INFO 8 ---
2020-08-20 12:11:54.389  INFO 8 ---
2020-08-20 12:11:54.390  INFO 8 ---
2020-08-20 12:11:54.390  INFO 8 ---
2020-08-20 12:11:54.391  INFO 8 ---
2020-08-20 12:11:54.391  INFO 8 ---
2020-08-20 12:11:54.391  INFO 8 ---
2020-08-20 13:11:54.392  INFO 8 ---
2020-08-20 13:11:54.392  INFO 8 ---
2020-08-20 13:11:54.392  INFO 8 ---
2020-08-20 13:11:54.394  INFO 8 ---
2020-08-20 14:11:54.394  INFO 8 ---
2020-08-20 14:11:54.395  INFO 8 ---
2020-08-20 14:11:54.406  INFO 8 ---
2020-08-20 15:11:54.406  INFO 8 ---
2020-08-20 15:11:54.406  INFO 8 ---
2020-08-20 16:11:54.377  INFO 8 ---
2020-08-20 16:11:54.386  INFO 8 ---
2020-08-20 16:11:54.387  INFO 8 ---
2020-08-20 16:11:54.388  INFO 8 ---
2020-08-20 17:11:54.388  INFO 8 ---
2020-08-20 18:11:54.388  INFO 8 ---
2020-08-20 18:11:54.389  INFO 8 ---
2020-08-20 19:11:54.389  INFO 8 ---
2020-08-20 19:11:54.390  INFO 8 ---
2020-08-20 19:11:54.390  INFO 8 ---
2020-08-20 19:11:54.391  INFO 8 ---
2020-08-20 19:11:54.391  INFO 8 ---
2020-08-20 19:11:54.391  INFO 8 ---
2020-08-20 20:11:54.392  INFO 8 ---
2020-08-20 20:11:54.392  INFO 8 ---
2020-08-20 20:11:54.392  INFO 8 ---
2020-08-20 20:11:54.394  INFO 8 ---
2020-08-20 20:11:54.394  INFO 8 ---
2020-08-20 21:11:54.395  INFO 8 ---
2020-08-20 21:11:54.406  INFO 8 ---
2020-08-20 21:11:54.406  INFO 8 ---
2020-08-20 21:11:54.406  INFO 8 ---
2020-08-20 22:11:54.392  INFO 8 ---
2020-08-20 22:11:54.392  INFO 8 ---
2020-08-20 22:11:54.392  INFO 8 ---
2020-08-20 22:11:54.394  INFO 8 ---
2020-08-20 23:11:54.394  INFO 8 ---
2020-08-20 23:11:54.395  INFO 8 ---
2020-08-20 23:11:54.406  INFO 8 ---
2020-08-20 23:11:54.406  INFO 8 ---
2020-08-20 23:11:54.406  INFO 8 ---